Week 2 of CMA
…
wildschwein_BE <- st_as_sf(wildschwein_BE, coords = c("E", "N"), crs = 2056, remove = FALSE)

wildschwein_BE

## Simple feature collection with 51246 features and 6 fields
## geometry type:  POINT
## dimension:      XY
## bbox:           xmin: 2568153 ymin: 1202306 xmax: 2575154 ymax: 1207609
## projected CRS:  CH1903+ / LV95
## # A tibble: 51,246 x 7
##    TierID TierName CollarID DatetimeUTC                E        N
##  * <chr>  <chr>       <dbl> <dttm>                 <dbl>    <dbl>
##  1 002A   Sabi        12275 2014-08-22 21:00:12 2570409. 1204752.
##  2 002A   Sabi        12275 2014-08-22 21:15:16 2570402. 1204863.
##  3 002A   Sabi        12275 2014-08-22 21:30:43 2570394. 1204826.
##  4 002A   Sabi        12275 2014-08-22 21:46:07 2570379. 1204817.
##  5 002A   Sabi        12275 2014-08-22 22:00:22 2570390. 1204818.
##  6 002A   Sabi        12275 2014-08-22 22:15:10 2570390. 1204825.
##  7 002A   Sabi        12275 2014-08-22 22:30:13 2570387. 1204831.
##  8 002A   Sabi        12275 2014-08-22 22:45:11 2570381. 1204840.
##  9 002A   Sabi        12275 2014-08-22 23:00:27 2570316. 1204935.
## 10 002A   Sabi        12275 2014-08-22 23:15:41 2570393. 1204815.
## # ... with 51,236 more rows, and 1 more variable: geometry <POINT [m]>
…
# counting time lags ####

# round lags on -2 digits
wildschwein_BE$timelag_rounded <- round(wildschwein_BE$timelag, -2)

# build categories with rounded lags
wildschwein_BE_lags <- wildschwein_BE %>%
  st_drop_geometry() %>%
  group_by(timelag_rounded) %>%
  summarise(count = n())

wildschwein_BE_lags

## # A tibble: 82 x 2
##    timelag_rounded count
##  *           <dbl> <int>
##  1               0    88
##  2             100     3
##  3             200     7
##  4             300    12
##  5             400     1
##  6             600     1
##  7             700    25
##  8             800   932
##  9             900 43252
## 10            1000   819
## # ... with 72 more rows
…
attr(caro$DatetimeUTC, "tzone") # checking timezone

## [1] "UTC"

# renaming cols beacause N and E were flipped in source data
caro %>% rename(N = E, E = N)

## # A tibble: 200 x 6
##    TierID TierName CollarID DatetimeUTC                E        N
##    <chr>  <chr>       <dbl> <dttm>                 <dbl>    <dbl>
##  1 010C   Caro        13973 2015-09-15 08:07:00 2570589. 1205095.
##  2 010C   Caro        13973 2015-09-15 08:08:00 2570573. 1205096.
##  3 010C   Caro        13973 2015-09-15 08:09:00 2570536. 1205099.
##  4 010C   Caro        13973 2015-09-15 08:10:00 2570518. 1205115.
##  5 010C   Caro        13973 2015-09-15 08:11:00 2570499. 1205130.
##  6 010C   Caro        13973 2015-09-15 08:12:00 2570489. 1205130.
##  7 010C   Caro        13973 2015-09-15 08:13:00 2570482. 1205124.
##  8 010C   Caro        13973 2015-09-15 08:14:00 2570481. 1205108.
##  9 010C   Caro        13973 2015-09-15 08:15:00 2570486. 1205099.
## 10 010C   Caro        13973 2015-09-15 08:16:00 2570490. 1205100.
## # ... with 190 more rows
…
